Inspect Data
…
knitr::opts_knit$set(root.dir = "../../")

Modelling Matrix

Original

df_mm <- tar_read(df_mm)

df_mm %>%
  select(category_id, activity_id_new, has_finding, everything())

## # A tibble: 4,055 × 185
##    category_id activity_id_new has_finding start_date n_visit n_unsch_visit n_sched_visit ratio_unsch_visit
##    <chr>       <chr>           <chr>       <date>       <dbl>         <dbl>         <dbl>             <dbl>
##  1 cnsn        00001           yes         2015-01-01     732            26           706            0.0355
##  2 cnsn        00003           yes         2014-01-01      NA            NA            NA           NA     
##  3 cnsn        00004           yes         2015-01-01     181            33           148            0.182 
##  4 cnsn        00006           yes         2014-01-01       0             0             0          NaN     
##  5 cnsn        00008           yes         2015-01-01     114             0           114            0     
##  6 cnsn        00009           yes         2015-01-01     297             0           297            0     
##  7 cnsn        00012           yes         2015-01-01     446             7           439            0.0157
##  8 cnsn        00013           yes         2015-01-01     688            65           623            0.0945
##  9 cnsn        00015           yes         2015-01-01     141            17           124            0.121 
## 10 cnsn        00016           yes         2015-01-01       0             0             0          NaN     
## # … with 4,045 more rows, and 177 more variables: ratio_unsch_visit_rnk <dbl>, n_ae <dbl>, n_sae <dbl>,
## #   ae_per_visit <dbl>, sae_per_visit <dbl>, ae_per_visit_rnk <dbl>, sae_per_visit_rnk <dbl>,
## #   median_ae_reporting_delay <dbl>, mean_ae_reporting_delay <dbl>, max_ae_reporting_delay <dbl>,
## #   median_sae_reporting_delay <dbl>, mean_sae_reporting_delay <dbl>, max_sae_reporting_delay <dbl>,
## #   n_patients <dbl>, therapeutic_area <chr>, n_active_sites_pi_yy <dbl>, n_active_sites_pi_yy_rnk <dbl>,
## #   n_active_trials_at_site_in_ta_yy <dbl>, n_active_trials_at_site_in_ta_yy_rnk <dbl>, time_on_study_dd <dbl>,
## #   dev_data_available <chr>, n_maj_dev <dbl>, n_min_dev <dbl>, n_maj_dev_per_daysonstudy <dbl>,
## #   n_min_dev_per_daysonstudy <dbl>, n_maj_dev_per_daysonstudy_rnk <dbl>, n_min_dev_per_daysonstudy_rnk <dbl>,
## #   issue_data_available <chr>, mean_iss_completion_time <dbl>, median_iss_completion_time <dbl>,
…
tibble(columns = colnames(df_mm)) %>%
  DT::datatable()

Binned

df_mm_bin <- tar_read(df_mm_bin)

df_mm_bin %>%
  select(category_id, activity_id_new, has_finding, everything())

## # A tibble: 4,055 × 861
##    category_id activity_id_new has_finding nvisitLL nvisitML nvisitM nvisitMH nvisitHH nvisitNA nunschvisitLL
##    <chr>       <chr>           <chr>          <dbl>    <dbl>   <dbl>    <dbl>    <dbl>    <dbl>         <dbl>
##  1 cnsn        00001           yes                0        0       0        1        0        0             0
##  2 cnsn        00003           yes                0        0       0        0        0        1             0
##  3 cnsn        00004           yes                0        0       1        0        0        0             0
##  4 cnsn        00006           yes                1        0       0        0        0        0             1
##  5 cnsn        00008           yes                0        1       0        0        0        0             1
##  6 cnsn        00009           yes                0        0       1        0        0        0             1
##  7 cnsn        00012           yes                0        0       0        1        0        0             0
##  8 cnsn        00013           yes                0        0       0        1        0        0             0
##  9 cnsn        00015           yes                0        1       0        0        0        0             0
## 10 cnsn        00016           yes                1        0       0        0        0        0             1
## # … with 4,045 more rows, and 851 more variables: nunschvisitML <dbl>, nunschvisitM <dbl>, nunschvisitMH <dbl>,
## #   nunschvisitHH <dbl>, nunschvisitNA <dbl>, nschedvisitLL <dbl>, nschedvisitML <dbl>, nschedvisitM <dbl>,
## #   nschedvisitMH <dbl>, nschedvisitHH <dbl>, nschedvisitNA <dbl>, ratiounschvisitLL <dbl>, ratiounschvisitML <dbl>,
## #   ratiounschvisitM <dbl>, ratiounschvisitMH <dbl>, ratiounschvisitHH <dbl>, ratiounschvisitNA <dbl>,
## #   ratiounschvisitrnkLL <dbl>, ratiounschvisitrnkML <dbl>, ratiounschvisitrnkM <dbl>, ratiounschvisitrnkMH <dbl>,
## #   ratiounschvisitrnkHH <dbl>, ratiounschvisitrnkNA <dbl>, naeLL <dbl>, naeML <dbl>, naeM <dbl>, naeMH <dbl>,
## #   naeHH <dbl>, naeNA <dbl>, nsaeLL <dbl>, nsaeML <dbl>, nsaeM <dbl>, nsaeMH <dbl>, nsaeHH <dbl>, nsaeNA <dbl>,
## #   aepervisitLL <dbl>, aepervisitML <dbl>, aepervisitM <dbl>, aepervisitMH <dbl>, aepervisitHH <dbl>,
## #   aepervisitNA <dbl>, saepervisitLL <dbl>, saepervisitML <dbl>, saepervisitM <dbl>, saepervisitMH <dbl>,
…
Coefficients

Modelling coefficients have been preselected.

tar_read(df_form) %>%
  DT::datatable()

Cross Validation Indeces

Indeces of modelling matrix that defines time series cross validation strategy.

tar_read(df_cv)

## # A tibble: 45 × 4
##    year_start_act category_id index_past                                 index_next_year                              
##             <dbl> <chr>       <chr>                                      <chr>                                        
##  1           2011 cnsn        70,71,72,84,85,86,87,88,89,90,91,92,93,94… 155,170,171,172,173,174,175,176,177,178,179,…
##  2           2012 cnsn        70,71,72,84,85,86,87,88,89,90,91,92,93,94… 211,229,231,234,241,242,243,244,245,246,247,…
##  3           2013 cnsn        70,71,72,84,85,86,87,88,89,90,91,92,93,94… 2,4,306,307,308,309,310,311,312,313,314,315,…
##  4           2014 cnsn        2,4,70,71,72,84,85,86,87,88,89,90,91,92,9… 1,3,5,6,7,8,9,10,11,12,13,14,15,16,17,18,19,…
##  5           2015 cnsn        1,2,3,4,5,6,7,8,9,10,11,12,13,14,15,16,17… 30,34,45,46,47,48,49,50,51,52,53,54,55,56,57…
##  6           2016 cnsn        1,2,3,4,5,6,7,8,9,10,11,12,13,14,15,16,17… 98,99,100,101,102,103,106,141,142,143,144,14…
##  7           2017 cnsn        1,2,3,4,5,6,7,8,9,10,11,12,13,14,15,16,17… 228,238,239,240,248,251,252,253,254,255,256,…
##  8           2018 cnsn        1,2,3,4,5,6,7,8,9,10,11,12,13,14,15,16,17… 358,359,360,361,362,363,364,365,366,367,369,…
##  9           2019 cnsn        1,2,3,4,5,6,7,8,9,10,11,12,13,14,15,16,17… 368,805,808                                  
## 10           2015 dtin        5678,5679,5680,5681,5682,5683,5684,5685,5… 5698,5714,5715,5724,5725,5726,5727,5728,5729…
## # … with 35 more rows
…
